{
  "Item": {
    "source": "data.source.value",
    "trainedLore": "data.trainedLore",
    "areasize": "data.areasize.value",
    "materials": "data.materials.value",
    "range": "data.range.value",
    "target": "data.target.value",
    "secondarycaster": "data.secondarycasters.value",
    "primarycheck": "data.primarycheck.value",
    "secondarycheck": "data.secondarycheck.value"
  }
}
